{
  "MailSettings": {
    "ToAddress": "farooq_am@hotmail.com"
  },
  "ConnectionStrings": {
    "WorldDataContextConnection": "Server=localhost;Database=TheWorld;Trusted_Connection=true;MultipleActiveResultSets=true;",
    "WorldUserIdentityDataContextConnection": "Server=localhost;Database=TheWorldUserIdentity;Trusted_Connection=true;MultipleActiveResultSets=true;"
  },
  "Services": {
    "Keys": {
      "BingKey": "DONTEVERPUTKEYSINSOURCECONTROL"
    }
  } 
  
}